{
	"easycom": {
		// 下载安装的方式需要前面的"@/"，npm安装的方式无需"@/"
		"^u-(.*)": "@/uview-ui/components/u-$1/u-$1.vue"
	},
	"pages": [ //pages数组中第一项表示应用启动页，参考：https://uniapp.dcloud.io/collocation/pages
		{
			"path": "pages/guide/guide",
			"style": {
				"navigationStyle": "custom"
			}
		}, {
			"path": "pages/index/index",
			"style": {
				"navigationBarTitleText": "首页",
				"enablePullDownRefresh": true
			}
		},

		{
			"path": "component/navbar/navbar",
			"style": {
				"navigationBarTitleText": "",
				"enablePullDownRefresh": false
			}

		}, {
			"path": "pages/member/member",
			"style": {
				"navigationStyle": "custom"
			}

		}, {
			"path": "pages/message/message",
			"style": {
				"navigationBarTitleText": "我的消息",
				"enablePullDownRefresh": true
			}

		}, {
			"path": "pages/sign/sign",
			"style": {
				"navigationBarTitleText": "保险订单",
				"enablePullDownRefresh": true
			}

		}, {
			"path": "component/tabbar/tabbar",
			"style": {
				"navigationBarTitleText": "",
				"enablePullDownRefresh": false
			}

		}, {
			"path": "pages/orderinfo/orderinfo",
			"style": {
				"navigationBarTitleText": "订单详情",
				"enablePullDownRefresh": true
			}

		}, {
			"path": "pages/login/login",
			"style": {
				"navigationStyle": "custom"
			}

		}, {
			"path": "pages/login/agreement",
			"style": {
				"navigationBarTitleText": "",
				"enablePullDownRefresh": false
			}
		}, {
			"path": "pages/wallet/wallet",
			"style": {
				"navigationBarTitleText": "我的钱包",
				"enablePullDownRefresh": false
			}
		}, {
			"path": "pages/wallet/withdraw",
			"style": {
				"navigationBarTitleText": "提现",
				"enablePullDownRefresh": false
			}
		}, {
			"path": "pages/wallet/withdraw-log",
			"style": {
				"navigationBarTitleText": "提现记录",
				"enablePullDownRefresh": false
			}
		}, {
			"path": "pages/wallet/income",
			"style": {
				"navigationBarTitleText": "收入",
				"enablePullDownRefresh": false
			}
		}, {
			"path": "pages/wallet/expense",
			"style": {
				"navigationBarTitleText": "支出",
				"enablePullDownRefresh": false
			}
		}, {
			"path": "pages/set/set",
			"style": {
				"navigationBarTitleText": "系统设置",
				"enablePullDownRefresh": false
			}
		}, {
			"path": "pages/faq/faq",
			"style": {
				"navigationBarTitleText": "常见问题",
				"enablePullDownRefresh": false
			}
		}, {
			"path": "pages/feedback/feedback",
			"style": {
				"navigationBarTitleText": "问题反馈",
				"enablePullDownRefresh": false
			}
		}, {
			"path": "pages/postlist/postlist",
			"style": {
				"navigationBarTitleText": "选择岗位",
				"enablePullDownRefresh": true
			}
		}, {
			"path": "pages/orderlist/orderlist",
			"style": {
				"navigationBarTitleText": "我的签约",
				"enablePullDownRefresh": true
			}
		}, {
			"path": "pages/approvefirst/approvefirst",
			"style": {
				"navigationBarTitleText": "身份认证",
				"enablePullDownRefresh": false
			}
		}, {
			"path": "pages/approvetow/approvetow",
			"style": {
				"navigationBarTitleText": "个人资料",
				"enablePullDownRefresh": false
			}
		}, {
			"path": "pages/approvethree/approvethree",
			"style": {
				"navigationBarTitleText": "资质证明",
				"enablePullDownRefresh": false
			}
		}, {
			"path": "pages/approvefour/approvefour",
			"style": {
				"navigationBarTitleText": "岗位信息",
				"enablePullDownRefresh": false
			}
		}, {
			"path": "pages/approvefive/approvefive",
			"style": {
				"navigationBarTitleText": "资料审核",
				"enablePullDownRefresh": false
			}
		}, {
			"path": "pages/approvesalary/approvesalary",
			"style": {
				"navigationBarTitleText": "薪资设置",
				"enablePullDownRefresh": false
			}
		}, {
			"path": "pages/worklist/worklist",
			"style": {
				"navigationBarTitleText": "工作经历",
				"enablePullDownRefresh": true
			}
		}, {
			"path": "pages/trainlist/trainlist",
			"style": {
				"navigationBarTitleText": "培训经历",
				"enablePullDownRefresh": true
			}
		}, {
			"path": "pages/goeasy/goeasy",
			"style": {
				"navigationBarTitleText": "",
				"enablePullDownRefresh": true
			}
		},
		{
			"path": "pages/webview/webview",
			"style": {
				"navigationBarTitleText": "",
				"enablePullDownRefresh": false
			}
		}
		, {
			"path": "pages/survey/survey",
			"style": {
				"navigationBarTitleText": "背景调查",
				"enablePullDownRefresh": false
			}
		}, {
			"path": "pages/aboutus/aboutus",
			"style": {
				"navigationBarTitleText": "关于我们",
				"enablePullDownRefresh": false
			}
		}, {
			"path": "pages/surveylist/surveylist",
			"style": {
				"navigationBarTitleText": "背调订单",
				"enablePullDownRefresh": true
			}
		},
		{
			"path": "pages/public/chat/index",
			"style": {
				"navigationBarTitleText": "客服",
				"navigationBarTextStyle": "white"

			}
		}
	],
	"globalStyle": {
		"navigationBarTextStyle": "white",
		"navigationBarTitleText": "阿姨直签",
		"navigationBarBackgroundColor": "#A98AFF",
		"backgroundColor": "#FFFFFF"
	},
	"tabBar": {
		"selectedColor": "#5602AC",
		"color": "#666666",
		"backgroundColor": "#ffffff",
		"borderStyle": "black",
		"list": [{
				"pagePath": "pages/index/index",
				"text": "首页",
				"iconPath": "/static/images/tabbar/index.png",
				"selectedIconPath": "/static/images/tabbar/index_on.png"
			},
			{
				"pagePath": "pages/message/message",
				"text": "消息",
				"iconPath": "/static/images/tabbar/message.png",
				"selectedIconPath": "/static/images/tabbar/message_on.png"
			},
			{
				"pagePath": "pages/index/index",
				"text": "",
				"iconPath": "/static/images/tabbar/center.png",
				"selectedIconPath": "/static/images/tabbar/center_on.png"
			},
			{
				"pagePath": "pages/sign/sign",
				"text": "保险",
				"iconPath": "/static/images/tabbar/insure.png",
				"selectedIconPath": "/static/images/tabbar/insure_on.png"
			},
			{
				"pagePath": "pages/member/member",
				"text": "我的",
				"iconPath": "/static/images/tabbar/my.png",
				"selectedIconPath": "/static/images/tabbar/my_on.png"
			}
		]
	},
	"permission": {
		"scope.userLocation": {
			"desc": "你的位置信息将用于小程序位置接口的效果展示"
		}
	}
}
